DATA,NOME
01/01/2019,Ano Novo
17/03/2019,Aniversário da cidade
19/04/2019,Sexta-Feira Santa
21/04/2019,Dia de Tiradentes
01/05/2019,Dia do Trabalho
24/06/2019,Dia de São João
08/07/2019,Aniversário de Sergipe
07/09/2019,Independência do Brasil
12/10/2019,Nossa Senhora Aparecida
02/11/2019,Dia de Finados
15/11/2019,Proclamação da República
08/12/2019,Nossa Senhora da Conceição